<?xml version="1.0" encoding="utf-8"?>
<!-- Generator: Adobe Illustrator 16.0.0, SVG Export Plug-In . SVG Version: 6.00 Build 0)  -->
<!DOCTYPE svg PUBLIC "-//W3C//DTD SVG 1.1//EN" "http://www.w3.org/Graphics/SVG/1.1/DTD/svg11.dtd">
<svg version="1.1" id="Layer_1" xmlns="http://www.w3.org/2000/svg" xmlns:xlink="http://www.w3.org/1999/xlink" x="0px" y="0px"
	 width="1363.376px" height="128.932px" viewBox="0 0 1363.376 128.932" enable-background="new 0 0 1363.376 128.932"
	 xml:space="preserve">
<filter  id="SVG_Blur">
	<feGaussianBlur  stdDeviation="10" in="SourceGraphic"></feGaussianBlur>
</filter>
<g id="_x35_" transform="matrix(1, 0, 0, 1, 0, 0)" filter="url(#SVG_Blur)">
	<path fill="#ECE6DD" d="M1363.376,72.735c-18.934,2.834-62.033,7.1-129.301,12.8l-179.399,15.2l-102.2,1.4l-39.9,3l-61.949,4
		l-62.9,0.899c-42.233,0.7-64.083,1.333-65.55,1.9l-183.05,1.399l-19.15,2.101c-11.267,0.933-17.483,1.634-18.65,2.1l-96.25,1.4
		l-26.6,1.399c-27.467,0-46.95-2.816-58.45-8.449c-3.633-1.768-6.233-3.717-7.8-5.851l-1.3-2.85c0-0.467,0.633-1.217,1.9-2.25
		l7.9-7.2l-121.1,4.75c-61,2.566-109.417,5.184-145.25,7.85h-24.85c-2.433-0.399-4-0.8-4.7-1.199c-1.067-0.634-1.6-2.45-1.6-5.45
		c0-4.733,5.05-8.601,15.15-11.601c7.033-2.1,18.967-4.266,35.8-6.5c21.566-2.899,35.55-4.934,41.95-6.1
		c15.2-2.834,26.35-6.316,33.45-10.45c7.5-4.267,14.667-9.399,21.5-15.399c6.767-6.367,11.767-10.851,15-13.45
		c5.4-4.4,11.05-7.583,16.95-9.55c7.267-2.4,16.4-3.6,27.4-3.6c17.767,0,31.283,1.983,40.55,5.95l9.5,4.1
		c3.667,1.233,7.983,1.85,12.95,1.85c6.433,0,11.55-1.583,15.35-4.75c1.233-1,2.617-2.434,4.15-4.3l3.6-4.15
		c2.934-2.867,6.65-4.083,11.15-3.65c5.867,0.6,14.4,3.883,25.6,9.85c5.1,1.433,9.934,3.767,14.5,7c2.534,1.767,5.867,4.25,10,7.45
		c3.567,2.3,7.25,3.417,11.05,3.35c4.667-0.033,10.55-1.767,17.65-5.2h22.4c4.199,1.733,8.133,4.617,11.8,8.65l8.7,11.149
		c3.399,4.467,6.633,7.7,9.699,9.7c4.233,2.733,9.217,4.101,14.95,4.101l15.75-5.9c13.067-4.834,25.7-9.166,37.9-13
		c40-12.6,71.7-18.9,95.1-18.9c20.033,0,35.667,2.633,46.9,7.9c3.066,1.434,6.5,3.483,10.3,6.15c3.3,2.266,5.7,3.649,7.2,4.149
		l93.8,0.7l41.65-0.85l44.8-1.95h106.05l112.8,5.7l64.2,4.649c41.467,2.9,105.9,4.351,193.3,4.351l11.3,0.949
		c4.067,0.7,6.601,1.551,7.601,2.551L1363.376,72.735"/>
</g>
</svg>
